﻿{
    "Authentication:Facebook:AppId": "1848370398778415",
    "Authentication:Facebook:AppSecret": "422742cd0a38b81a0b2e8ce852c35dba",
    "Authentication:Google:ClientId": "849897477965-lqsqmt9r4ot5epudmu7fo0dccb68rs4b.apps.googleusercontent.com",
    "Authentication:Google:ClientSecret": "xcO3-gG48dnTMj2j0IdTOoxt",
    "Authentication:Instagram:ClientId": "2bee5ad9ef8d490481175156d632eed9",
    "Authentication:Instagram:ClientSecret": "a74d5e1f46064e6c807160b525f886de",
    "Authentication:Twitter:ConsumerKey": "dVnCDlR96AosZ9VxtMl5OXB9G",
    "Authentication:Twitter:ConsumerSecret": "Fw55UaGOJ2GfbyKOVthwVYVuKZiJtSAb88pGC937DJkdLbADRd",
    "Authentication:Twitter:AccessToken": "744298950019129345-WxuDo7mbF1g9qC4UHEGmbEnjvaZNHeB",
    "Authentication:Twitter:accessTokenSecret": "J7n8DMDnMCWESby320OzyWMaThwy8mkPUKGqcHbkPwkJj",
    "SecretRecaptchaKeyRemote": "{secret: '6LfVuRcUAAAAAHoPkVUrkA6qpFnWXPFWsFyK5YVw', public: '6LfVuRcUAAAAAHXJaCLmQW013lNRCYLNW5cESK4v'}",
    "SecretRecaptchaKeyLocal": "{secret: '6Lcr5BEUAAAAAFn5gyZ4SCLh0QMaorLtz_A0FzcF', public: '6Lcr5BEUAAAAAF4Fy96wTyJX60MJPy37uGoBidwT'}",
    "OAuthRedirectUrlLocal": "{url: 'http%3A%2F%2Flocalhost%3A1703%2F', state:'3mcArP-4eWzd0Mum1tjNk2Ehxddv9RqhPOHLU-azUhA1'}",
    "OAuthRedirectUrlRemote": "{url: 'https%3A%2F%2Fwww.igruhi.com%2F', state:'WuG3qXPIZUarSvD0NIsgQ-RGzwqX4r7K9vcv9LRLCck1'}"
}